<?xml version="1.0" encoding="UTF-8" standalone="no"?>
<!-- Created with Inkscape (http://www.inkscape.org/) -->

<svg
   width="573"
   height="420"
   id="svg47622"
   version="1.1"
   inkscape:version="1.1.2 (0a00cf5339, 2022-02-04, custom)"
   sodipodi:docname="nautilus-context-menus.svg"
   inkscape:export-filename="nautilus-context-menus.png"
   inkscape:export-xdpi="96"
   inkscape:export-ydpi="96"
   xmlns:inkscape="http://www.inkscape.org/namespaces/inkscape"
   xmlns:sodipodi="http://sodipodi.sourceforge.net/DTD/sodipodi-0.dtd"
   xmlns:xlink="http://www.w3.org/1999/xlink"
   xmlns="http://www.w3.org/2000/svg"
   xmlns:svg="http://www.w3.org/2000/svg"
   xmlns:rdf="http://www.w3.org/1999/02/22-rdf-syntax-ns#"
   xmlns:cc="http://creativecommons.org/ns#"
   xmlns:dc="http://purl.org/dc/elements/1.1/">
  <defs
     id="defs47624">
    <inkscape:path-effect
       effect="spiro"
       id="path-effect8169"
       is_visible="true"
       lpeversion="0" />
    <inkscape:path-effect
       is_visible="true"
       id="path-effect8126"
       effect="spiro"
       lpeversion="0" />
    <inkscape:path-effect
       effect="spiro"
       id="path-effect8124"
       is_visible="true"
       lpeversion="0" />
    <inkscape:path-effect
       is_visible="true"
       id="path-effect8047"
       effect="spiro"
       lpeversion="0" />
    <inkscape:path-effect
       effect="spiro"
       id="path-effect8044"
       is_visible="true"
       lpeversion="0" />
    <inkscape:path-effect
       is_visible="true"
       id="path-effect7782"
       effect="spiro"
       lpeversion="0" />
    <inkscape:path-effect
       effect="spiro"
       id="path-effect7779"
       is_visible="true"
       lpeversion="0" />
    <inkscape:path-effect
       is_visible="true"
       id="path-effect74763"
       effect="spiro"
       lpeversion="0" />
    <inkscape:path-effect
       effect="spiro"
       id="path-effect12286-6"
       is_visible="true"
       lpeversion="0" />
    <inkscape:path-effect
       is_visible="true"
       id="path-effect12290-3"
       effect="spiro"
       lpeversion="0" />
    <clipPath
       clipPathUnits="userSpaceOnUse"
       id="clipPath72884-1">
      <rect
         style="color:#bebebe;display:inline;overflow:visible;visibility:visible;fill:#d9dbd9;fill-opacity:1;fill-rule:nonzero;stroke:none;stroke-width:1;marker:none;enable-background:accumulate"
         id="rect72886-1"
         width="370"
         height="60"
         x="-1063.5"
         y="-28.125" />
    </clipPath>
    <linearGradient
       id="linearGradient60714-5-0">
      <stop
         style="stop-color:#f4f4f2;stop-opacity:1"
         offset="0"
         id="stop60716-7-7" />
      <stop
         style="stop-color:#ecece9;stop-opacity:1"
         offset="1"
         id="stop60718-2-6" />
    </linearGradient>
    <inkscape:path-effect
       is_visible="true"
       id="path-effect9388-9-2"
       effect="spiro"
       lpeversion="0" />
    <inkscape:path-effect
       is_visible="true"
       id="path-effect9388-7-8-5"
       effect="spiro"
       lpeversion="0" />
    <inkscape:path-effect
       is_visible="true"
       id="path-effect9388-6-7-4"
       effect="spiro"
       lpeversion="0" />
    <inkscape:path-effect
       effect="spiro"
       id="path-effect8915-0-8-2-7-4-4-8-4"
       is_visible="true"
       lpeversion="0" />
  </defs>
  <sodipodi:namedview
     id="base"
     pagecolor="#ffffff"
     bordercolor="#666666"
     borderopacity="1.0"
     inkscape:pageopacity="0.0"
     inkscape:pageshadow="2"
     inkscape:zoom="1.4142136"
     inkscape:cx="235.113"
     inkscape:cy="139.30004"
     inkscape:document-units="px"
     inkscape:current-layer="layer4"
     showgrid="false"
     showborder="true"
     fit-margin-top="18"
     fit-margin-left="18"
     fit-margin-right="18"
     fit-margin-bottom="18"
     inkscape:snap-nodes="false"
     inkscape:snap-bbox="true"
     inkscape:window-width="1920"
     inkscape:window-height="1011"
     inkscape:window-x="0"
     inkscape:window-y="0"
     inkscape:window-maximized="1"
     showguides="true"
     inkscape:guide-bbox="true"
     inkscape:showpageshadow="false"
     inkscape:snap-bbox-midpoints="false"
     inkscape:bbox-nodes="true"
     inkscape:snap-global="true"
     inkscape:pagecheckerboard="1"
     inkscape:snap-bbox-edge-midpoints="true"
     inkscape:bbox-paths="true"
     borderlayer="true"
     lock-margins="true">
    <inkscape:grid
       type="xygrid"
       id="grid48455"
       empspacing="5"
       visible="true"
       enabled="true"
       snapvisiblegridlinesonly="true"
       originx="-19.71876"
       originy="-15.722047" />
    <inkscape:grid
       type="xygrid"
       id="grid38968"
       spacingx="6"
       spacingy="6"
       enabled="false"
       originx="-19.71876"
       originy="-15.722047" />
  </sodipodi:namedview>
  <metadata
     id="metadata47627">
    <rdf:RDF>
      <cc:Work
         rdf:about="">
        <dc:format>image/svg+xml</dc:format>
        <dc:type
           rdf:resource="http://purl.org/dc/dcmitype/StillImage" />
      </cc:Work>
    </rdf:RDF>
  </metadata>
  <g
     inkscape:groupmode="layer"
     id="layer2"
     inkscape:label="widgets"
     transform="translate(-99.71876,-376.72205)"
     style="display:inline">
    <g
       transform="translate(122.9998,329)"
       id="g74572"
       inkscape:label="status"
       style="color:#bebebe;display:inline;overflow:visible;visibility:visible;fill:#bebebe;fill-opacity:1;fill-rule:nonzero;stroke:none;stroke-width:1;marker:none;enable-background:accumulate" />
    <g
       style="color:#bebebe;display:inline;overflow:visible;visibility:visible;fill:#bebebe;fill-opacity:1;fill-rule:nonzero;stroke:none;stroke-width:1;marker:none;enable-background:accumulate"
       transform="translate(122.9998,329)"
       id="g74574"
       inkscape:label="devices" />
    <g
       style="color:#bebebe;display:inline;overflow:visible;visibility:visible;fill:#bebebe;fill-opacity:1;fill-rule:nonzero;stroke:none;stroke-width:1;marker:none;enable-background:accumulate"
       transform="translate(122.9998,329)"
       id="g74576"
       inkscape:label="apps" />
    <g
       style="color:#bebebe;display:inline;overflow:visible;visibility:visible;fill:#bebebe;fill-opacity:1;fill-rule:nonzero;stroke:none;stroke-width:1;marker:none;enable-background:accumulate"
       transform="translate(122.9998,329)"
       id="g74582"
       inkscape:label="places" />
    <g
       style="color:#bebebe;display:inline;overflow:visible;visibility:visible;fill:#bebebe;fill-opacity:1;fill-rule:nonzero;stroke:none;stroke-width:1;marker:none;enable-background:accumulate"
       transform="translate(122.9998,329)"
       id="g74584"
       inkscape:label="mimetypes" />
    <g
       transform="translate(122.9998,329)"
       id="g74586"
       inkscape:label="emblems"
       style="color:#bebebe;display:inline;overflow:visible;visibility:visible;fill:#bebebe;fill-opacity:1;fill-rule:nonzero;stroke:none;stroke-width:1;marker:none;enable-background:accumulate" />
    <g
       transform="translate(122.9998,329)"
       id="g74588"
       inkscape:label="categories"
       style="color:#bebebe;display:inline;overflow:visible;visibility:visible;fill:#bebebe;fill-opacity:1;fill-rule:nonzero;stroke:none;stroke-width:1;marker:none;enable-background:accumulate" />
    <g
       transform="translate(-38,417)"
       id="g62909" />
    <g
       id="g62816"
       transform="translate(-145,417)"
       style="fill:#d3d7cf" />
    <g
       transform="translate(-96,457)"
       id="g62939"
       style="fill:#d3d7cf" />
    <g
       id="g414-3"
       style="display:inline"
       transform="translate(17.71863,-140.27789)">
      <rect
         style="fill:#ffffff;stroke:#d5d5d5;stroke-width:1;stroke-linecap:round;stroke-linejoin:round;stroke-miterlimit:4;stroke-dasharray:none;stroke-opacity:1;stop-color:#000000"
         id="rect41685-6"
         width="260"
         height="336"
         x="100.50013"
         y="535.49994"
         ry="12"
         rx="12" />
      <g
         id="g8065"
         transform="translate(-271.73775,14.001466)">
        <rect
           style="display:inline;opacity:0;fill:#e6e6e6;fill-opacity:1;stroke:none;stroke-width:75.5906;paint-order:stroke fill markers"
           id="rect5658"
           width="58"
           height="34"
           x="390.73788"
           y="573.99847"
           rx="17" />
        <g
           fill="#2e3436"
           id="g5099"
           transform="translate(411.73788,583.0014)"
           style="display:inline">
          <path
             d="M 14,1 8.796875,5.972656 10.359375,7.5 16,2 V 1 Z m -6.804688,6.5 -2.976562,2.84375 1.6875,1.5 2.890625,-2.816406 z m 0,0"
             id="path5091" />
          <path
             d="M 4.21875,5.65625 14,15 h 2 V 14 L 5.90625,4.15625 Z m 0,0"
             id="path5093" />
          <path
             d="m 5.972656,1.019531 c -1.359375,-1.359375 -3.59375,-1.359375 -4.953125,0 -1.359375,1.359375 -1.359375,3.59375 0,4.953125 1.359375,1.359375 3.59375,1.363282 4.953125,0 1.359375,-1.359375 1.359375,-3.59375 0,-4.953125 z M 4.558594,2.433594 c 0.597656,0.59375 0.597656,1.53125 0,2.125 -0.59375,0.597656 -1.527344,0.597656 -2.125,0 -0.59375,-0.59375 -0.59375,-1.527344 0,-2.125 0.597656,-0.59375 1.53125,-0.59375 2.125,0 z m 0,0"
             id="path5095" />
          <path
             d="m 5.972656,10.019531 c -1.359375,-1.359375 -3.59375,-1.359375 -4.953125,0 -1.359375,1.359375 -1.359375,3.597657 0,4.957031 1.359375,1.359376 3.59375,1.355469 4.953125,-0.0039 1.359375,-1.359375 1.359375,-3.59375 0,-4.953125 z m -1.414062,1.414063 c 0.597656,0.597656 0.597656,1.53125 0,2.125 -0.59375,0.597656 -1.527344,0.597656 -2.125,0.0039 -0.59375,-0.597656 -0.59375,-1.53125 0,-2.128906 0.597656,-0.59375 1.53125,-0.59375 2.125,0 z m 0,0"
             id="path5097" />
        </g>
      </g>
      <text
         xml:space="preserve"
         style="font-style:normal;font-variant:normal;font-weight:normal;font-stretch:normal;font-size:16px;line-height:1.25;font-family:Cantarell;-inkscape-font-specification:'Cantarell, Normal';font-variant-ligatures:normal;font-variant-caps:normal;font-variant-numeric:normal;font-variant-east-asian:normal;text-align:start;letter-spacing:0px;word-spacing:0px;text-anchor:start"
         x="118.13613"
         y="563.82397"
         id="text41689-7"><tspan
           sodipodi:role="line"
           id="tspan41687-5"
           x="118.13613"
           y="563.82397">Open With Image Viewer</tspan></text>
      <g
         id="g8086"
         transform="translate(-109.23775,14.001466)">
        <rect
           style="display:inline;opacity:0;fill:#e6e6e6;fill-opacity:1;stroke:none;stroke-width:75.5906;paint-order:stroke fill markers"
           id="rect7642"
           width="58"
           height="34"
           x="310.73788"
           y="573.99847"
           rx="17" />
        <g
           fill="#2e3436"
           id="g8071"
           transform="translate(331.73788,582.49847)">
          <path
             d="m 6,16 h 6 l 3,-3 V 6 C 15,5.449219 14.550781,5 14,5 H 6 C 5.449219,5 5,5.449219 5,6 v 9 c 0,0.550781 0.449219,1 1,1 z m 0,0"
             id="path8067" />
          <path
             d="M 2,12 H 4 V 6 C 4,4.894531 4.894531,4 6,4 h 5 V 2 C 11,1.449219 10.550781,1 10,1 H 2 C 1.449219,1 1.003906,1.445312 1.003906,1.996094 L 1,11 c 0,0.550781 0.449219,1 1,1 z m 0,0"
             id="path8069" />
        </g>
      </g>
      <g
         id="g8176"
         transform="translate(-14.737755,-32.998534)">
        <rect
           style="display:inline;fill:#e6e6e6;fill-opacity:1;stroke:none;stroke-width:75.5906;paint-order:stroke fill markers"
           id="rect8168"
           width="34"
           height="34"
           x="322.73788"
           y="573.99847"
           rx="17" />
        <g
           fill="#2e3436"
           id="g4679"
           transform="translate(331.73788,582.99066)"
           style="display:inline">
          <path
             d="m 2,6.007812 c 1.105469,0 2,0.894532 2,2 0,1.101563 -0.894531,2 -2,2 -1.105469,0 -2,-0.898437 -2,-2 0,-1.105468 0.894531,-2 2,-2 z m 0,0"
             id="path4673" />
          <path
             d="m 8,6.007812 c 1.105469,0 2,0.894532 2,2 0,1.101563 -0.894531,2 -2,2 -1.105469,0 -2,-0.898437 -2,-2 0,-1.105468 0.894531,-2 2,-2 z m 0,0"
             id="path4675" />
          <path
             d="m 14,6.007812 c 1.105469,0 2,0.894532 2,2 0,1.101563 -0.894531,2 -2,2 -1.105469,0 -2,-0.898437 -2,-2 0,-1.105468 0.894531,-2 2,-2 z m 0,0"
             id="path4677" />
        </g>
      </g>
      <rect
         style="opacity:1;fill:#d5d5d5;fill-opacity:1;stroke:none;stroke-width:65.7177;paint-order:stroke fill markers"
         id="rect8867"
         width="247"
         height="1"
         x="107.00013"
         y="580.99994" />
      <g
         id="g9615"
         transform="translate(-26.737755,14.001466)">
        <rect
           style="display:inline;opacity:0;fill:#e6e6e6;fill-opacity:1;stroke:none;stroke-width:75.5906;paint-order:stroke fill markers"
           id="rect9607"
           width="58"
           height="34"
           x="310.73788"
           y="573.99847"
           rx="17" />
        <path
           d="m 343.73788,587.99847 v 9 h -9 v -9 h -2 v 9 c 0,2 2,2 2,2 h 9 c 2,0 2,-2 2,-2 v -9 z m -4,1 h -1 v 6 h 1 z m -2,0 h -1 v 6 h 1 z m 4,0 h -1 v 6 h 1 z m 1,-6 c 2,0 2,2 2,2 h 2 v 2 h -15 v -2 h 2 c 0,-2 2,-2 2,-2 z m 0,1 h -7 v 1 h 7 z"
           fill="#474747"
           id="path9777" />
      </g>
      <rect
         style="opacity:1;fill:#d5d5d5;fill-opacity:1;stroke:none;stroke-width:65.7177;paint-order:stroke fill markers"
         id="rect9866"
         width="247"
         height="1"
         x="107.00013"
         y="627.99994" />
      <text
         xml:space="preserve"
         style="font-style:normal;font-variant:normal;font-weight:normal;font-stretch:normal;font-size:16px;line-height:1.25;font-family:Cantarell;-inkscape-font-specification:'Cantarell, Normal';font-variant-ligatures:normal;font-variant-caps:normal;font-variant-numeric:normal;font-variant-east-asian:normal;text-align:start;letter-spacing:0px;word-spacing:0px;text-anchor:start"
         x="118.13613"
         y="657.82397"
         id="text9870"><tspan
           sodipodi:role="line"
           id="tspan9868"
           x="118.13613"
           y="657.82397">Move to…</tspan></text>
      <text
         xml:space="preserve"
         style="font-style:normal;font-variant:normal;font-weight:normal;font-stretch:normal;font-size:16px;line-height:1.25;font-family:Cantarell;-inkscape-font-specification:'Cantarell, Normal';font-variant-ligatures:normal;font-variant-caps:normal;font-variant-numeric:normal;font-variant-east-asian:normal;text-align:start;letter-spacing:0px;word-spacing:0px;text-anchor:start"
         x="118.13613"
         y="691.82397"
         id="text9886"><tspan
           sodipodi:role="line"
           id="tspan9884"
           x="118.13613"
           y="691.82397">Copy to…</tspan></text>
      <rect
         style="opacity:1;fill:#d5d5d5;fill-opacity:1;stroke:none;stroke-width:65.7177;paint-order:stroke fill markers"
         id="rect12904"
         width="247"
         height="1"
         x="107.00013"
         y="708.99994" />
      <text
         xml:space="preserve"
         style="font-style:normal;font-variant:normal;font-weight:normal;font-stretch:normal;font-size:16px;line-height:1.25;font-family:Cantarell;-inkscape-font-specification:'Cantarell, Normal';font-variant-ligatures:normal;font-variant-caps:normal;font-variant-numeric:normal;font-variant-east-asian:normal;text-align:start;letter-spacing:0px;word-spacing:0px;text-anchor:start"
         x="118.13613"
         y="738.82397"
         id="text12908"><tspan
           sodipodi:role="line"
           x="118.13613"
           y="738.82397"
           id="tspan19881">Extension Action</tspan></text>
      <rect
         style="opacity:1;fill:#d5d5d5;fill-opacity:1;stroke:none;stroke-width:65.7177;paint-order:stroke fill markers"
         id="rect16809"
         width="247"
         height="1"
         x="107.00013"
         y="755.99994" />
      <text
         xml:space="preserve"
         style="font-style:normal;font-variant:normal;font-weight:normal;font-stretch:normal;font-size:16px;line-height:1.25;font-family:Cantarell;-inkscape-font-specification:'Cantarell, Normal';font-variant-ligatures:normal;font-variant-caps:normal;font-variant-numeric:normal;font-variant-east-asian:normal;text-align:start;letter-spacing:0px;word-spacing:0px;text-anchor:start"
         x="118.13613"
         y="785.82397"
         id="text16831"><tspan
           sodipodi:role="line"
           id="tspan16829"
           x="118.13613"
           y="785.82397">Star</tspan></text>
      <text
         xml:space="preserve"
         style="font-style:normal;font-variant:normal;font-weight:normal;font-stretch:normal;font-size:16px;line-height:1.25;font-family:Cantarell;-inkscape-font-specification:'Cantarell, Normal';font-variant-ligatures:normal;font-variant-caps:normal;font-variant-numeric:normal;font-variant-east-asian:normal;text-align:start;letter-spacing:0px;word-spacing:0px;text-anchor:start"
         x="118.13613"
         y="819.82397"
         id="text19647"><tspan
           sodipodi:role="line"
           id="tspan19645"
           x="118.13613"
           y="819.82397">Rename…</tspan></text>
      <text
         xml:space="preserve"
         style="font-style:normal;font-variant:normal;font-weight:normal;font-stretch:normal;font-size:16px;line-height:1.25;font-family:Cantarell;-inkscape-font-specification:'Cantarell, Normal';font-variant-ligatures:normal;font-variant-caps:normal;font-variant-numeric:normal;font-variant-east-asian:normal;text-align:start;letter-spacing:0px;word-spacing:0px;text-anchor:start"
         x="118.13613"
         y="853.82397"
         id="text19663"><tspan
           sodipodi:role="line"
           id="tspan19661"
           x="118.13613"
           y="853.82397">Properties</tspan></text>
      <g
         id="g2364"
         transform="translate(-14.737755,-32.998534)">
        <rect
           style="display:inline;fill:#e6e6e6;fill-opacity:1;stroke:none;stroke-width:75.5906;paint-order:stroke fill markers"
           id="rect2354"
           width="34"
           height="34"
           x="322.73788"
           y="573.99847"
           rx="17" />
        <g
           fill="#2e3436"
           id="g2362"
           transform="translate(331.73788,582.99066)"
           style="display:inline">
          <path
             d="m 2,6.007812 c 1.105469,0 2,0.894532 2,2 0,1.101563 -0.894531,2 -2,2 -1.105469,0 -2,-0.898437 -2,-2 0,-1.105468 0.894531,-2 2,-2 z m 0,0"
             id="path2356" />
          <path
             d="m 8,6.007812 c 1.105469,0 2,0.894532 2,2 0,1.101563 -0.894531,2 -2,2 -1.105469,0 -2,-0.898437 -2,-2 0,-1.105468 0.894531,-2 2,-2 z m 0,0"
             id="path2358" />
          <path
             d="m 14,6.007812 c 1.105469,0 2,0.894532 2,2 0,1.101563 -0.894531,2 -2,2 -1.105469,0 -2,-0.898437 -2,-2 0,-1.105468 0.894531,-2 2,-2 z m 0,0"
             id="path2360" />
        </g>
      </g>
    </g>
    <g
       id="g20631"
       style="display:inline"
       transform="translate(317.71863,-140.27789)">
      <rect
         style="fill:#ffffff;stroke:#d5d5d5;stroke-width:1;stroke-linecap:round;stroke-linejoin:round;stroke-miterlimit:4;stroke-dasharray:none;stroke-opacity:1;stop-color:#000000"
         id="rect20467"
         width="236"
         height="383"
         x="100.50013"
         y="535.49994"
         ry="12"
         rx="12" />
      <g
         id="g20481"
         transform="translate(-271.73775,14.001466)">
        <rect
           style="display:inline;opacity:0;fill:#e6e6e6;fill-opacity:1;stroke:none;stroke-width:75.5906;paint-order:stroke fill markers"
           id="rect20469"
           width="58"
           height="34"
           x="390.73788"
           y="573.99847"
           rx="17" />
        <g
           fill="#2e3436"
           id="g20479"
           transform="translate(411.73788,583.0014)"
           style="display:inline">
          <path
             d="M 14,1 8.796875,5.972656 10.359375,7.5 16,2 V 1 Z m -6.804688,6.5 -2.976562,2.84375 1.6875,1.5 2.890625,-2.816406 z m 0,0"
             id="path20471" />
          <path
             d="M 4.21875,5.65625 14,15 h 2 V 14 L 5.90625,4.15625 Z m 0,0"
             id="path20473" />
          <path
             d="m 5.972656,1.019531 c -1.359375,-1.359375 -3.59375,-1.359375 -4.953125,0 -1.359375,1.359375 -1.359375,3.59375 0,4.953125 1.359375,1.359375 3.59375,1.363282 4.953125,0 1.359375,-1.359375 1.359375,-3.59375 0,-4.953125 z M 4.558594,2.433594 c 0.597656,0.59375 0.597656,1.53125 0,2.125 -0.59375,0.597656 -1.527344,0.597656 -2.125,0 -0.59375,-0.59375 -0.59375,-1.527344 0,-2.125 0.597656,-0.59375 1.53125,-0.59375 2.125,0 z m 0,0"
             id="path20475" />
          <path
             d="m 5.972656,10.019531 c -1.359375,-1.359375 -3.59375,-1.359375 -4.953125,0 -1.359375,1.359375 -1.359375,3.597657 0,4.957031 1.359375,1.359376 3.59375,1.355469 4.953125,-0.0039 1.359375,-1.359375 1.359375,-3.59375 0,-4.953125 z m -1.414062,1.414063 c 0.597656,0.597656 0.597656,1.53125 0,2.125 -0.59375,0.597656 -1.527344,0.597656 -2.125,0.0039 -0.59375,-0.597656 -0.59375,-1.53125 0,-2.128906 0.597656,-0.59375 1.53125,-0.59375 2.125,0 z m 0,0"
             id="path20477" />
        </g>
      </g>
      <g
         id="g20495"
         transform="translate(-121.73775,14.001466)">
        <rect
           style="display:inline;opacity:0;fill:#e6e6e6;fill-opacity:1;stroke:none;stroke-width:75.5906;paint-order:stroke fill markers"
           id="rect20487"
           width="58"
           height="34"
           x="310.73788"
           y="573.99847"
           rx="17" />
        <g
           fill="#2e3436"
           id="g20493"
           transform="translate(331.73788,581.99847)">
          <path
             d="m 6,16 h 6 l 3,-3 V 6 C 15,5.449219 14.550781,5 14,5 H 6 C 5.449219,5 5,5.449219 5,6 v 9 c 0,0.550781 0.449219,1 1,1 z m 0,0"
             id="path20489" />
          <path
             d="M 2,12 H 4 V 6 C 4,4.894531 4.894531,4 6,4 h 5 V 2 C 11,1.449219 10.550781,1 10,1 H 2 C 1.449219,1 1.003906,1.445312 1.003906,1.996094 L 1,11 c 0,0.550781 0.449219,1 1,1 z m 0,0"
             id="path20491" />
        </g>
      </g>
      <rect
         style="opacity:1;fill:#d5d5d5;fill-opacity:1;stroke:none;stroke-width:62.5832;paint-order:stroke fill markers"
         id="rect20509"
         width="224"
         height="1"
         x="107.00013"
         y="580.99994" />
      <text
         xml:space="preserve"
         style="font-style:normal;font-variant:normal;font-weight:normal;font-stretch:normal;font-size:16px;line-height:1.25;font-family:Cantarell;-inkscape-font-specification:'Cantarell, Normal';font-variant-ligatures:normal;font-variant-caps:normal;font-variant-numeric:normal;font-variant-east-asian:normal;text-align:start;letter-spacing:0px;word-spacing:0px;text-anchor:start;display:inline"
         x="118.13613"
         y="563.82397"
         id="text41689-7-3"><tspan
           sodipodi:role="line"
           id="tspan41687-5-6"
           x="118.13613"
           y="563.82397">Open</tspan></text>
      <g
         id="g20515"
         transform="translate(-51.737755,14.001466)">
        <rect
           style="display:inline;opacity:1;fill:#e6e6e6;fill-opacity:1;stroke:none;stroke-width:75.5906;paint-order:stroke fill markers"
           id="rect20511"
           width="58"
           height="34"
           x="310.73788"
           y="573.99847"
           rx="17" />
        <path
           d="m 343.73788,587.99847 v 9 h -9 v -9 h -2 v 9 c 0,2 2,2 2,2 h 9 c 2,0 2,-2 2,-2 v -9 z m -4,1 h -1 v 6 h 1 z m -2,0 h -1 v 6 h 1 z m 4,0 h -1 v 6 h 1 z m 1,-6 c 2,0 2,2 2,2 h 2 v 2 h -15 v -2 h 2 c 0,-2 2,-2 2,-2 z m 0,1 h -7 v 1 h 7 z"
           fill="#474747"
           id="path20513" />
      </g>
      <rect
         style="opacity:1;fill:#d5d5d5;fill-opacity:1;stroke:none;stroke-width:62.5832;paint-order:stroke fill markers"
         id="rect20517"
         width="224"
         height="1"
         x="107.00013"
         y="627.99994" />
      <text
         xml:space="preserve"
         style="font-style:normal;font-variant:normal;font-weight:normal;font-stretch:normal;font-size:16px;line-height:1.25;font-family:Cantarell;-inkscape-font-specification:'Cantarell, Normal';font-variant-ligatures:normal;font-variant-caps:normal;font-variant-numeric:normal;font-variant-east-asian:normal;text-align:start;letter-spacing:0px;word-spacing:0px;text-anchor:start"
         x="118.13613"
         y="657.82397"
         id="text20521"><tspan
           sodipodi:role="line"
           id="tspan20519"
           x="118.13613"
           y="657.82397">Move to…</tspan></text>
      <text
         xml:space="preserve"
         style="font-style:normal;font-variant:normal;font-weight:normal;font-stretch:normal;font-size:16px;line-height:1.25;font-family:Cantarell;-inkscape-font-specification:'Cantarell, Normal';font-variant-ligatures:normal;font-variant-caps:normal;font-variant-numeric:normal;font-variant-east-asian:normal;text-align:start;letter-spacing:0px;word-spacing:0px;text-anchor:start"
         x="118.13613"
         y="691.82397"
         id="text20537"><tspan
           sodipodi:role="line"
           id="tspan20535"
           x="118.13613"
           y="691.82397">Copy to…</tspan></text>
      <rect
         style="opacity:1;fill:#d5d5d5;fill-opacity:1;stroke:none;stroke-width:62.5832;paint-order:stroke fill markers"
         id="rect20551"
         width="224"
         height="1"
         x="107.00013"
         y="708.99994" />
      <text
         xml:space="preserve"
         style="font-style:normal;font-variant:normal;font-weight:normal;font-stretch:normal;font-size:16px;line-height:1.25;font-family:Cantarell;-inkscape-font-specification:'Cantarell, Normal';font-variant-ligatures:normal;font-variant-caps:normal;font-variant-numeric:normal;font-variant-east-asian:normal;text-align:start;letter-spacing:0px;word-spacing:0px;text-anchor:start"
         x="118.13613"
         y="738.82397"
         id="text21647"><tspan
           sodipodi:role="line"
           id="tspan21645"
           x="118.13613"
           y="738.82397">Compress…</tspan></text>
      <rect
         style="opacity:1;fill:#d5d5d5;fill-opacity:1;stroke:none;stroke-width:62.5832;paint-order:stroke fill markers"
         id="rect21661"
         width="224"
         height="1"
         x="107.00013"
         y="755.99988" />
      <text
         xml:space="preserve"
         style="font-style:normal;font-variant:normal;font-weight:normal;font-stretch:normal;font-size:16px;line-height:1.25;font-family:Cantarell;-inkscape-font-specification:'Cantarell, Normal';font-variant-ligatures:normal;font-variant-caps:normal;font-variant-numeric:normal;font-variant-east-asian:normal;text-align:start;letter-spacing:0px;word-spacing:0px;text-anchor:start"
         x="118.13613"
         y="785.82397"
         id="text21665"><tspan
           sodipodi:role="line"
           x="118.13613"
           y="785.82397"
           id="tspan21663">Extension Action</tspan></text>
      <rect
         style="opacity:1;fill:#d5d5d5;fill-opacity:1;stroke:none;stroke-width:62.5832;paint-order:stroke fill markers"
         id="rect21691"
         width="224"
         height="1"
         x="107.00013"
         y="802.99988" />
      <text
         xml:space="preserve"
         style="font-style:normal;font-variant:normal;font-weight:normal;font-stretch:normal;font-size:16px;line-height:1.25;font-family:Cantarell;-inkscape-font-specification:'Cantarell, Normal';font-variant-ligatures:normal;font-variant-caps:normal;font-variant-numeric:normal;font-variant-east-asian:normal;text-align:start;letter-spacing:0px;word-spacing:0px;text-anchor:start"
         x="118.13613"
         y="832.82397"
         id="text21707"><tspan
           sodipodi:role="line"
           id="tspan21705"
           x="118.13613"
           y="832.82397">Star</tspan></text>
      <text
         xml:space="preserve"
         style="font-style:normal;font-variant:normal;font-weight:normal;font-stretch:normal;font-size:16px;line-height:1.25;font-family:Cantarell;-inkscape-font-specification:'Cantarell, Normal';font-variant-ligatures:normal;font-variant-caps:normal;font-variant-numeric:normal;font-variant-east-asian:normal;text-align:start;letter-spacing:0px;word-spacing:0px;text-anchor:start"
         x="118.13613"
         y="866.82397"
         id="text21711"><tspan
           sodipodi:role="line"
           id="tspan21709"
           x="118.13613"
           y="866.82397">Rename…</tspan></text>
      <text
         xml:space="preserve"
         style="font-style:normal;font-variant:normal;font-weight:normal;font-stretch:normal;font-size:16px;line-height:1.25;font-family:Cantarell;-inkscape-font-specification:'Cantarell, Normal';font-variant-ligatures:normal;font-variant-caps:normal;font-variant-numeric:normal;font-variant-east-asian:normal;text-align:start;letter-spacing:0px;word-spacing:0px;text-anchor:start"
         x="118.13613"
         y="900.82397"
         id="text21727"><tspan
           sodipodi:role="line"
           id="tspan21725"
           x="118.13613"
           y="900.82397">Properties</tspan></text>
      <g
         id="g1921"
         transform="translate(-211.73775,-32.998534)">
        <rect
           style="display:inline;opacity:0;fill:#e6e6e6;fill-opacity:1;stroke:none;stroke-width:75.5906;paint-order:stroke fill markers"
           id="rect1911"
           width="34"
           height="34"
           x="402.73788"
           y="573.99847"
           rx="17" />
        <g
           fill="#2e3436"
           id="g1919"
           transform="translate(411.73788,582.99847)">
          <path
             d="M 3,0 C 1.355469,0 0,1.355469 0,3 v 10 c 0,1.644531 1.355469,3 3,3 h 10 c 1.644531,0 3,-1.355469 3,-3 V 3 C 16,1.355469 14.644531,0 13,0 Z m 0,2 h 10 c 0.570312,0 1,0.429688 1,1 v 10 c 0,0.570312 -0.429688,1 -1,1 H 3 C 2.429688,14 2,13.570312 2,13 V 3 C 2,2.429688 2.429688,2 3,2 Z m 0,0"
             id="path1913" />
          <path
             d="m 4,7 h 8 V 9 H 4 Z m 0,0"
             id="path1915" />
          <path
             d="m 9,4 v 8 H 7 V 4 Z m 0,0"
             id="path1917" />
        </g>
      </g>
      <g
         id="g1931"
         transform="translate(-85.737755,-32.998534)">
        <rect
           style="display:inline;opacity:0;fill:#e6e6e6;fill-opacity:1;stroke:none;stroke-width:75.5906;paint-order:stroke fill markers"
           id="rect1923"
           width="34"
           height="34"
           x="322.73788"
           y="573.99847"
           rx="17" />
        <g
           fill="#2e3436"
           id="g1929"
           transform="translate(330.74988,581.99047)">
          <path
             d="M 2.994,1.008 C 1.994,1.008 0.988,2 0.988,3 v 12.02 h 7.006 v -2 H 2.988 V 5 H 13 v 3 h 2 V 3 C 15,2 13.994,1.008 12.994,1.008 Z"
             style="line-height:normal;text-indent:0;text-align:start;text-decoration-line:none;text-decoration-style:solid;text-decoration-color:#000000;text-transform:none;white-space:normal;isolation:auto;mix-blend-mode:normal;solid-color:#000000;solid-opacity:1;marker:none"
             color="#000000"
             font-weight="400"
             font-family="sans-serif"
             overflow="visible"
             id="path1925" />
          <path
             d="m 12,10 v 2 h -2 v 2 h 2 v 2 h 2 v -2 h 2 v -2 h -2 v -2 z"
             id="path1927" />
        </g>
      </g>
      <g
         id="g2364-5"
         transform="translate(-39.737755,-32.998534)"
         style="display:inline">
        <rect
           style="display:inline;opacity:0;fill:#e6e6e6;fill-opacity:1;stroke:none;stroke-width:75.5906;paint-order:stroke fill markers"
           id="rect2354-3"
           width="34"
           height="34"
           x="322.73788"
           y="573.99847"
           rx="17" />
        <g
           fill="#2e3436"
           id="g2362-5"
           transform="translate(331.73788,582.99066)"
           style="display:inline">
          <path
             d="m 2,6.007812 c 1.105469,0 2,0.894532 2,2 0,1.101563 -0.894531,2 -2,2 -1.105469,0 -2,-0.898437 -2,-2 0,-1.105468 0.894531,-2 2,-2 z m 0,0"
             id="path2356-6" />
          <path
             d="m 8,6.007812 c 1.105469,0 2,0.894532 2,2 0,1.101563 -0.894531,2 -2,2 -1.105469,0 -2,-0.898437 -2,-2 0,-1.105468 0.894531,-2 2,-2 z m 0,0"
             id="path2358-2" />
          <path
             d="m 14,6.007812 c 1.105469,0 2,0.894532 2,2 0,1.101563 -0.894531,2 -2,2 -1.105469,0 -2,-0.898437 -2,-2 0,-1.105468 0.894531,-2 2,-2 z m 0,0"
             id="path2360-9" />
        </g>
      </g>
    </g>
  </g>
  <g
     inkscape:groupmode="layer"
     id="layer1"
     inkscape:label="mouse"
     style="display:inline">
    <image
       width="24"
       height="24"
       preserveAspectRatio="none"
       xlink:href="data:image/png;base64,iVBORw0KGgoAAAANSUhEUgAAAGAAAABgCAYAAADimHc4AAAABHNCSVQICAgIfAhkiAAAD+xJREFU eJztnX1Qk9eex78hJARDEt4RBanUiwK1Lq2CL1xWbmkZ8VoHu9S6unO7OLvcgvWlu6DLXnWuXusL 0u7sUrqlKq7SUtvaQmdsh1LAMrW2WOtldFWKrbZb3oTwGiAQkrN/nDw8z5M8wQQCIZjvzJmEPM85 z8n5nPP7nbccAJdccskll1xyySWXXJr+IoRIHZ2Hh1aEEBEh5CNCiLuj8/JQygiAEELeJ4SIHZ2f h04BAQFeRgBErVZ/oFQqFwAIAxAMwAeAHIAHAHcAbgBExuCSPeTj46MiHP3888/vAogGsADAXAB+ EIbgkj2kUql8iIlu3LhxFsATABYBCIULwuRJoVD4mQIghJC6urpiAHEAomAOQQwXBPvIy8vLXwgA IYRUV1e/DWAlqEniQpDCBcE+8vLyCrAEgBBCKisrHwTB5ZQnIrlcHjgWAEKIoays7L9AITDmyBcu CPaRXC4PMi3xgYEB3t96vV5fUlJyDCyEELgg2EemAAwGA9mwYQPRarVmEM6cOXMYwAoAkaAQfADM ggvC+CUEwNfXl2zcuJEMDQ3xIIyMjOgKCwv3A1gOcwgSuAZqtksIgLe3N/H39yfp6elEp9PxIOh0 uqG8vLzdoBAWgQ7WXBDGKyEAKpWK+Pr6koCAALJ9+3ai1+t5EIaHh4cOHz6cDTpOWARgDlwQxich AEqlkvj4+BB/f38SFBREXnnlFWIwGHgQhoaGBnJzc7eDQlgICsEbgCdcEKyXEACFQkG8vb2Jn58f CQwMJMHBwWTfvn3EVFqttj87OzsTQCyACNAJPBcEWyQEQC6Xj7aCgIAAMnv2bDJ37lySl5dnBmFw cLAnMzPznwAsgwuC7RICMGvWLLNWMGfOHBIaGkoKCgrMIPT396s3b978BwBLAfwGFIIKLggPlhAA T09P4uXlxXPGTCuYN28eKSoqMoOg0WjaX3jhhS1gIcwGhSCDC4JlCQHw8PAYbQVcZ8y0gvnz55OS khIzCD09PS0pKSnPg0JYAApBCQrhoVnQcZtoAoSQ0WAwGGAwGMw+279/Pz744ANePKVSOfvdd999 /emnn54PWvByUDMkhfk6woyFYFcApiAYGAaDAXv37sWFCxd4cVUq1ZzS0tK8FStWzAM1QV54yCBM GIBQrReCMTIygpycHNTU1PDi+/n5hZWVlR2Ljo6eC7YlyPCQQLBbCzCt9UIghoeHsX37dtTW1vLS CAwM/E1VVdWxiIgIxhl74SGBMKkmSOja8PAwdu7ciStXrvDSCQoKWlRdXX0kJCQkELQlMBAkMF9R mzEQ7AJgrFovBGNwcBCZmZm4du0aL625c+c+/vXXXx8ODg4OAKAA3zHPSAgTBgDAahPEvTYwMICs rCzcunWLl1ZoaGjMV199dUClUvmDtoRZYM3RjINgNwDWmiAuqL6+Prz00kv48ccfeemFh4cvv3z5 8p88PDx8wTpmD8xACHYBAFjXHRW63tnZiYyMDNy7d4+XXmRk5OqrV6/+u7u7uw/4EIR8gtPKbgCs 7Y4KXevo6EBmZiaam5t5aUZHRz9VV1f3r6ATdtwuqikEpwVhNwCAbb7A9HpraysyMjLQ2trKSzMm Jub3ly5dygKFwDhmZted00OwOwBra73Q9ZaWFmzbtg1qtZqX7sqVK5+vrq7+Z/AhCM0ZOR2ESQVg iy9gwi+//IIdO3agp6eHl3ZiYuKWysrKraADNQXY3hFjjpzSKdsVAACrC3ssWI2NjdixYwf6+vp4 aSclJf3hk08+2QzWJ5hCYL6P00CwO4DxdEeFrjc0NCA7OxuDg4Pc5EXr1q3740cffbQRbEvwhHnv CHASCHYHAFj2Bba2iuvXryM7OxtarZabvGj9+vVZZ8+eXQ/WJ8yCuWMGnADCpAAYb3dUCFR9fT32 7t0LnU7HZtrNzW3Tpk3/UlRUlAxhCG5wEgiTAgCw3hdY0yrq6upw8OBB6PX60fTFYrE4PT09t6Cg 4BmwM6gMBO6yJjCNIUwagIl0R4Wu1dbW4tChQzAYDKPPEIvF7hkZGblHjx79W5i3BKfoHU0JgPF0 R4WuX7x4Efn5+SCEjD7H3d1dumvXrj8fPHgwHuaratMewqQBAMaenhhvq6ioqEBhYSHvORKJxCMn J+fPe/bsWQa+OWIWdKYthEkFYI/uqND18vJyvPXWW7xnSaXSWfv37381Kyvrb8BvCdze0bSDMKkA AGFfYI9W8fHHH+Odd97hPUsmkyny8vLyMjIyHoeTQJhSAPYapDHXSkpK8P777/Oe5+npqczPzz+2 adOmSJj7BDGmGYQpAWCv7qhQKC4uxvnz53nPlMvlvm+//XZ+WlraIpi3hGm1oDPpAADrfMF4QQHA yZMn8emnn/KeKZfL/U+cOHEsOTk5HPxFfqGdFg7TlAKwV3eUe41Jv6CgwGzPkVKpDC4tLc1btWrV PLAQLG38coimBABgeXrCHq0CoBCOHz9utufIx8dnXnl5+WuxsbGhsLyq5jDZRF8ulwdpNJrRJStC CNzcrM+/WCyGWCyGu7v76HtuWLhwIaqqqmxK01rdv3+/YfXq1btu3brVDKAHQD8ALYBhAEN2f6CV mlL6DzIxjY2NqKqqmpRnBwYGLqyqqjoyf/78AJibIofJIQDGMjEFBQWT9vzg4ODHL126dDQ0NNQb fIfsME05gAfZ86tXr6Kurm7S8hAcHPzEN998cyggIIA7VeEwTfnDCSEIDAxEe3s73NzcBGEUFhYi NjZ2NI5erycrVqw4e+XKlQ5Qmz0MQGcMBgDEGGDySgDoAYyA2vlBAH0Aeo3XRHCwE57yh+/atQuf f/45RCKRRV9QVVWFmzdvjsYRi8WiAwcOLAEtxAHQQuwC0AmgA8B9Y2jjvG83hg7jfT3GeIOgAEfA B+cQTSmAnJwc5OfnIzIyEqmpqWP6gqKiIl7cp5566rHFixd7gK3F3QDUYAu+1RhaOKEVLJR2sCA0 YHtAejhQU9YN3b17N44cOTL6982bN7F06VKIRCLBLqlUKsWXX36JsLCw0ThlZWW1qamp50ELvwu0 IAfAFqSlGk1ATZUBtOaPgO1+6kCBOkRT0gIOHTrEK3wAiIqKwtq1ay0OtEZGRnDq1ClenOTk5NiQ kBAJ2MLTgNrzHrAmiRvUxtAJCq3beD8DjgHgHBL6lSTYWicYjh07Rizp+++/JzKZjPdbY+6vLCMi IkhnZycvzrlz58oAbAKQBCAGQDjoLyz9QCfelKBLk0LBC3QkzN3yPjO7oSKRCK+//jqys7Mt3hMT E4Pk5GSL80ADAwM4ffo0L05KSsrv/P39PcGfRtCD7R0NmQQtJwxx7hsxxjPAWWRtCxCJRKSwsNCs xms0msGGhoZm7mfffvstkclkvCMPuK1g8eLFpL+/n5fOqVOn/gfAetADoSIABIHWcNO9QWMF59tP ag0AkUhE3njjDaHC16ampp5du3btKYPJaSopKSmjv7g3PfgjJCSEnDhxgne/Wq1uk0gkmwD8DsBi 0MOgmNGt0IbdsYLz6EEAxGIxKS4uNiv83t7e/jVr1pwEcADAn+rr629yr1++fNmsFXCPPIiLiyPD w8O8NF977bU3APwe9PSVRwH4g9p3pzrqwG4+QCwWo7i4GC+++CLv897e3oG0tLR3Pvvss3sw9liO Hz9eBk53cfny5UhISLDoC5qbm1FeXs5Ld+PGjWtBnelYvyGbWbLUAiQSCfnwww/Nan5nZ2dvQkLC mwByAWwHsBXA3wN4/t69e9e499bU1BCZTGbx4I/ExESz07hyc3OPAkgBPW8iHLQnZHoS17TWhFuA VCrFuXPn8Nxzz/E+7+rq6l23bt3Z2traX0D76czItQOA+rRJ92b16tVYuXKlxXHBnTt3zKaq09PT 14HtVlr6Ed/MkVALuHDhglnNv3//fldsbOx/Avg3AFkANgNYC+C3oLU1BkBsa2vrd9x4lZWVgsff MM44NTXV7Flbt27dB2AN6AHij4CeUeqJabLk+CBNqAWIRCKkpKTwPmtra+tKTk4+U1dXx6w8cUeo XcbQA6D3/Pnzb3LjJiUlIS4uzqap6p07d64D3xdIwBb+tJddM9na2qpOSko6fe3atWZQh8sUfheo CWImwvoB9GdlZX2tVqv/yk0jOzt7zDWDN9/kMUNUVNQTq1atCoawM572W9TtBqCpqak9MTGx+MaN G20QLvw+0PmXQW6oqKj4b246a9aswZIlSyz6gpqaGty+fZv9Am5ubi+//HI8qNmRwcn+g4ddADQ1 NbUkJiaevH379n3wzQ53Aoy7CK4zvmo3b958sbu7+zqTlkgkwp49eyyuHxsMBrPDn8LCwkJBC57Z lm66DXHaylYAZlO9zc3N/5eQkPBWY2OjaeFza/4g2JnHEU4YAqD94osveDttn332WURFRVn0Bd3d 3bw8uLu7Mz0gCVgApqPdaQljQi2gpaXlx/j4+P/46aef2sEWPhOECp+Z/DKAXSrUpqWlfdHT0zN6 aodIJMLu3bsFTZBEIsGWLVt4+fj11187we77ZGr+zHPCIpFotAW0t7ffiI+PP3j37l2m8JlFEu6q E3fOnSl407XaYQDaixcv8lrBhg0bEB0dzTNBCxYsQGlpKWJiYnj5OnPmzHU4qWxqlgqFwq+3t7ej u7v7Slxc3L4ffvhBDNrcdaCF3Qta6zVg116Zmm9qvkTGuB4A5FKp1Kejo6NMoVBEMDd0d3ejoqIC Wq0WTz75JB577DGzPH333Xf/u2zZshOgS47M8mOnMR9aUMjMlLND138nLJVK5aPRaL5cunRpDOjp t78FkAA6LbwEdFKMOQ13rMO5GRPhDtp78QUQ9t5772WajbTGUFNTU9ujjz56AMAfAfydMS+Rxjwo QP3CtB+M2SLFM888Ewo64owELfTHje8fAZ2Xt/YUXAaCFLSwggBENDQ0nLOm8Ovr6xsjIiL+AjrH 9A+go+FloHNC/nCSOSFbM8ZsZuIOeJiFbu5qkx58syPU9BkwbqAFJQNdMvSprKz8x/j4+BdlMpk3 N4JOp9PfuXPn55KSkm9fffXVv4I1e8w8E+P8+435YVa9LOXB4bIVADPI4Xb1CPhdS8bmjlX43Ocz vkACClgBwFupVPpv27ZtWXh4+COEEM+7d+9qTp48ebetrY1x6kOgBd0HthPALLhzt5w4fO/PWLIV ADPA4f4PGGbLB7eLaU3hc5/PpOkBar4UYBfXmY20jDkhYAEMgBa4BuxImyl8p3C+tu4IMHBemcIT WhcGrPvSzPZAJt1hsGANxr8Hwf/1O2PymGvcwJjBB5m/aSNbATC1HeAD4L6avrclXWZ3A+G8H4Sw yWOmM7iBu9NhWhc8I1tN0IPuH++X5k4XcEe03Hkd7v8vZpz8iMmrrSbQ4Rpv98w0nj2+KBcC03Xk TitzfQ53qyE3TKQVuuSSSy655JJLD5P+HxUk8g9beFA+AAAAAElFTkSuQmCC "
       id="image26736"
       x="249.99998"
       y="41.999996"
       style="display:inline" />
    <image
       width="24"
       height="24"
       preserveAspectRatio="none"
       xlink:href="data:image/png;base64,iVBORw0KGgoAAAANSUhEUgAAAGAAAABgCAYAAADimHc4AAAABHNCSVQICAgIfAhkiAAAD+xJREFU eJztnX1Qk9eex78hJARDEt4RBanUiwK1Lq2CL1xWbmkZ8VoHu9S6unO7OLvcgvWlu6DLXnWuXusL 0u7sUrqlKq7SUtvaQmdsh1LAMrW2WOtldFWKrbZb3oTwGiAQkrN/nDw8z5M8wQQCIZjvzJmEPM85 z8n5nPP7nbccAJdccskll1xyySWXXJr+IoRIHZ2Hh1aEEBEh5CNCiLuj8/JQygiAEELeJ4SIHZ2f h04BAQFeRgBErVZ/oFQqFwAIAxAMwAeAHIAHAHcAbgBExuCSPeTj46MiHP3888/vAogGsADAXAB+ EIbgkj2kUql8iIlu3LhxFsATABYBCIULwuRJoVD4mQIghJC6urpiAHEAomAOQQwXBPvIy8vLXwgA IYRUV1e/DWAlqEniQpDCBcE+8vLyCrAEgBBCKisrHwTB5ZQnIrlcHjgWAEKIoays7L9AITDmyBcu CPaRXC4PMi3xgYEB3t96vV5fUlJyDCyEELgg2EemAAwGA9mwYQPRarVmEM6cOXMYwAoAkaAQfADM ggvC+CUEwNfXl2zcuJEMDQ3xIIyMjOgKCwv3A1gOcwgSuAZqtksIgLe3N/H39yfp6elEp9PxIOh0 uqG8vLzdoBAWgQ7WXBDGKyEAKpWK+Pr6koCAALJ9+3ai1+t5EIaHh4cOHz6cDTpOWARgDlwQxich AEqlkvj4+BB/f38SFBREXnnlFWIwGHgQhoaGBnJzc7eDQlgICsEbgCdcEKyXEACFQkG8vb2Jn58f CQwMJMHBwWTfvn3EVFqttj87OzsTQCyACNAJPBcEWyQEQC6Xj7aCgIAAMnv2bDJ37lySl5dnBmFw cLAnMzPznwAsgwuC7RICMGvWLLNWMGfOHBIaGkoKCgrMIPT396s3b978BwBLAfwGFIIKLggPlhAA T09P4uXlxXPGTCuYN28eKSoqMoOg0WjaX3jhhS1gIcwGhSCDC4JlCQHw8PAYbQVcZ8y0gvnz55OS khIzCD09PS0pKSnPg0JYAApBCQrhoVnQcZtoAoSQ0WAwGGAwGMw+279/Pz744ANePKVSOfvdd999 /emnn54PWvByUDMkhfk6woyFYFcApiAYGAaDAXv37sWFCxd4cVUq1ZzS0tK8FStWzAM1QV54yCBM GIBQrReCMTIygpycHNTU1PDi+/n5hZWVlR2Ljo6eC7YlyPCQQLBbCzCt9UIghoeHsX37dtTW1vLS CAwM/E1VVdWxiIgIxhl74SGBMKkmSOja8PAwdu7ciStXrvDSCQoKWlRdXX0kJCQkELQlMBAkMF9R mzEQ7AJgrFovBGNwcBCZmZm4du0aL625c+c+/vXXXx8ODg4OAKAA3zHPSAgTBgDAahPEvTYwMICs rCzcunWLl1ZoaGjMV199dUClUvmDtoRZYM3RjINgNwDWmiAuqL6+Prz00kv48ccfeemFh4cvv3z5 8p88PDx8wTpmD8xACHYBAFjXHRW63tnZiYyMDNy7d4+XXmRk5OqrV6/+u7u7uw/4EIR8gtPKbgCs 7Y4KXevo6EBmZiaam5t5aUZHRz9VV1f3r6ATdtwuqikEpwVhNwCAbb7A9HpraysyMjLQ2trKSzMm Jub3ly5dygKFwDhmZted00OwOwBra73Q9ZaWFmzbtg1qtZqX7sqVK5+vrq7+Z/AhCM0ZOR2ESQVg iy9gwi+//IIdO3agp6eHl3ZiYuKWysrKraADNQXY3hFjjpzSKdsVAACrC3ssWI2NjdixYwf6+vp4 aSclJf3hk08+2QzWJ5hCYL6P00CwO4DxdEeFrjc0NCA7OxuDg4Pc5EXr1q3740cffbQRbEvwhHnv CHASCHYHAFj2Bba2iuvXryM7OxtarZabvGj9+vVZZ8+eXQ/WJ8yCuWMGnADCpAAYb3dUCFR9fT32 7t0LnU7HZtrNzW3Tpk3/UlRUlAxhCG5wEgiTAgCw3hdY0yrq6upw8OBB6PX60fTFYrE4PT09t6Cg 4BmwM6gMBO6yJjCNIUwagIl0R4Wu1dbW4tChQzAYDKPPEIvF7hkZGblHjx79W5i3BKfoHU0JgPF0 R4WuX7x4Efn5+SCEjD7H3d1dumvXrj8fPHgwHuaratMewqQBAMaenhhvq6ioqEBhYSHvORKJxCMn J+fPe/bsWQa+OWIWdKYthEkFYI/uqND18vJyvPXWW7xnSaXSWfv37381Kyvrb8BvCdze0bSDMKkA AGFfYI9W8fHHH+Odd97hPUsmkyny8vLyMjIyHoeTQJhSAPYapDHXSkpK8P777/Oe5+npqczPzz+2 adOmSJj7BDGmGYQpAWCv7qhQKC4uxvnz53nPlMvlvm+//XZ+WlraIpi3hGm1oDPpAADrfMF4QQHA yZMn8emnn/KeKZfL/U+cOHEsOTk5HPxFfqGdFg7TlAKwV3eUe41Jv6CgwGzPkVKpDC4tLc1btWrV PLAQLG38coimBABgeXrCHq0CoBCOHz9utufIx8dnXnl5+WuxsbGhsLyq5jDZRF8ulwdpNJrRJStC CNzcrM+/WCyGWCyGu7v76HtuWLhwIaqqqmxK01rdv3+/YfXq1btu3brVDKAHQD8ALYBhAEN2f6CV mlL6DzIxjY2NqKqqmpRnBwYGLqyqqjoyf/78AJibIofJIQDGMjEFBQWT9vzg4ODHL126dDQ0NNQb fIfsME05gAfZ86tXr6Kurm7S8hAcHPzEN998cyggIIA7VeEwTfnDCSEIDAxEe3s73NzcBGEUFhYi NjZ2NI5erycrVqw4e+XKlQ5Qmz0MQGcMBgDEGGDySgDoAYyA2vlBAH0Aeo3XRHCwE57yh+/atQuf f/45RCKRRV9QVVWFmzdvjsYRi8WiAwcOLAEtxAHQQuwC0AmgA8B9Y2jjvG83hg7jfT3GeIOgAEfA B+cQTSmAnJwc5OfnIzIyEqmpqWP6gqKiIl7cp5566rHFixd7gK3F3QDUYAu+1RhaOKEVLJR2sCA0 YHtAejhQU9YN3b17N44cOTL6982bN7F06VKIRCLBLqlUKsWXX36JsLCw0ThlZWW1qamp50ELvwu0 IAfAFqSlGk1ATZUBtOaPgO1+6kCBOkRT0gIOHTrEK3wAiIqKwtq1ay0OtEZGRnDq1ClenOTk5NiQ kBAJ2MLTgNrzHrAmiRvUxtAJCq3beD8DjgHgHBL6lSTYWicYjh07Rizp+++/JzKZjPdbY+6vLCMi IkhnZycvzrlz58oAbAKQBCAGQDjoLyz9QCfelKBLk0LBC3QkzN3yPjO7oSKRCK+//jqys7Mt3hMT E4Pk5GSL80ADAwM4ffo0L05KSsrv/P39PcGfRtCD7R0NmQQtJwxx7hsxxjPAWWRtCxCJRKSwsNCs xms0msGGhoZm7mfffvstkclkvCMPuK1g8eLFpL+/n5fOqVOn/gfAetADoSIABIHWcNO9QWMF59tP ag0AkUhE3njjDaHC16ampp5du3btKYPJaSopKSmjv7g3PfgjJCSEnDhxgne/Wq1uk0gkmwD8DsBi 0MOgmNGt0IbdsYLz6EEAxGIxKS4uNiv83t7e/jVr1pwEcADAn+rr629yr1++fNmsFXCPPIiLiyPD w8O8NF977bU3APwe9PSVRwH4g9p3pzrqwG4+QCwWo7i4GC+++CLv897e3oG0tLR3Pvvss3sw9liO Hz9eBk53cfny5UhISLDoC5qbm1FeXs5Ld+PGjWtBnelYvyGbWbLUAiQSCfnwww/Nan5nZ2dvQkLC mwByAWwHsBXA3wN4/t69e9e499bU1BCZTGbx4I/ExESz07hyc3OPAkgBPW8iHLQnZHoS17TWhFuA VCrFuXPn8Nxzz/E+7+rq6l23bt3Z2traX0D76czItQOA+rRJ92b16tVYuXKlxXHBnTt3zKaq09PT 14HtVlr6Ed/MkVALuHDhglnNv3//fldsbOx/Avg3AFkANgNYC+C3oLU1BkBsa2vrd9x4lZWVgsff MM44NTXV7Flbt27dB2AN6AHij4CeUeqJabLk+CBNqAWIRCKkpKTwPmtra+tKTk4+U1dXx6w8cUeo XcbQA6D3/Pnzb3LjJiUlIS4uzqap6p07d64D3xdIwBb+tJddM9na2qpOSko6fe3atWZQh8sUfheo CWImwvoB9GdlZX2tVqv/yk0jOzt7zDWDN9/kMUNUVNQTq1atCoawM572W9TtBqCpqak9MTGx+MaN G20QLvw+0PmXQW6oqKj4b246a9aswZIlSyz6gpqaGty+fZv9Am5ubi+//HI8qNmRwcn+g4ddADQ1 NbUkJiaevH379n3wzQ53Aoy7CK4zvmo3b958sbu7+zqTlkgkwp49eyyuHxsMBrPDn8LCwkJBC57Z lm66DXHaylYAZlO9zc3N/5eQkPBWY2OjaeFza/4g2JnHEU4YAqD94osveDttn332WURFRVn0Bd3d 3bw8uLu7Mz0gCVgApqPdaQljQi2gpaXlx/j4+P/46aef2sEWPhOECp+Z/DKAXSrUpqWlfdHT0zN6 aodIJMLu3bsFTZBEIsGWLVt4+fj11187we77ZGr+zHPCIpFotAW0t7ffiI+PP3j37l2m8JlFEu6q E3fOnSl407XaYQDaixcv8lrBhg0bEB0dzTNBCxYsQGlpKWJiYnj5OnPmzHU4qWxqlgqFwq+3t7ej u7v7Slxc3L4ffvhBDNrcdaCF3Qta6zVg116Zmm9qvkTGuB4A5FKp1Kejo6NMoVBEMDd0d3ejoqIC Wq0WTz75JB577DGzPH333Xf/u2zZshOgS47M8mOnMR9aUMjMlLND138nLJVK5aPRaL5cunRpDOjp t78FkAA6LbwEdFKMOQ13rMO5GRPhDtp78QUQ9t5772WajbTGUFNTU9ujjz56AMAfAfydMS+Rxjwo QP3CtB+M2SLFM888Ewo64owELfTHje8fAZ2Xt/YUXAaCFLSwggBENDQ0nLOm8Ovr6xsjIiL+AjrH 9A+go+FloHNC/nCSOSFbM8ZsZuIOeJiFbu5qkx58syPU9BkwbqAFJQNdMvSprKz8x/j4+BdlMpk3 N4JOp9PfuXPn55KSkm9fffXVv4I1e8w8E+P8+435YVa9LOXB4bIVADPI4Xb1CPhdS8bmjlX43Ocz vkACClgBwFupVPpv27ZtWXh4+COEEM+7d+9qTp48ebetrY1x6kOgBd0HthPALLhzt5w4fO/PWLIV ADPA4f4PGGbLB7eLaU3hc5/PpOkBar4UYBfXmY20jDkhYAEMgBa4BuxImyl8p3C+tu4IMHBemcIT WhcGrPvSzPZAJt1hsGANxr8Hwf/1O2PymGvcwJjBB5m/aSNbATC1HeAD4L6avrclXWZ3A+G8H4Sw yWOmM7iBu9NhWhc8I1tN0IPuH++X5k4XcEe03Hkd7v8vZpz8iMmrrSbQ4Rpv98w0nj2+KBcC03Xk TitzfQ53qyE3TKQVuuSSSy655JJLD5P+HxUk8g9beFA+AAAAAElFTkSuQmCC "
       id="image2167"
       x="508"
       y="92"
       style="display:inline" />
  </g>
  <g
     inkscape:groupmode="layer"
     id="layer4"
     inkscape:label="buttons"
     style="display:none"
     transform="translate(-19.71876,-15.722047)">
    <g
       id="g9882"
       transform="translate(-92.01912,-440.27641)"
       style="display:inline">
      <rect
         style="display:inline;fill:#e6e6e6;fill-opacity:1;stroke:none;stroke-width:75.5906;paint-order:stroke fill markers"
         id="rect9872"
         width="58"
         height="34"
         x="310.73788"
         y="573.99847"
         rx="17" />
      <g
         fill="#2e3436"
         id="g9880"
         transform="translate(331.73788,582.99066)"
         style="display:inline">
        <path
           d="m 2,6.007812 c 1.105469,0 2,0.894532 2,2 0,1.101563 -0.894531,2 -2,2 -1.105469,0 -2,-0.898437 -2,-2 0,-1.105468 0.894531,-2 2,-2 z m 0,0"
           id="path9874" />
        <path
           d="m 8,6.007812 c 1.105469,0 2,0.894532 2,2 0,1.101563 -0.894531,2 -2,2 -1.105469,0 -2,-0.898437 -2,-2 0,-1.105468 0.894531,-2 2,-2 z m 0,0"
           id="path9876" />
        <path
           d="m 14,6.007812 c 1.105469,0 2,0.894532 2,2 0,1.101563 -0.894531,2 -2,2 -1.105469,0 -2,-0.898437 -2,-2 0,-1.105468 0.894531,-2 2,-2 z m 0,0"
           id="path9878" />
      </g>
    </g>
    <g
       id="g9898"
       transform="translate(-92.01912,-406.27641)"
       style="display:inline">
      <rect
         style="display:inline;fill:#e6e6e6;fill-opacity:1;stroke:none;stroke-width:75.5906;paint-order:stroke fill markers"
         id="rect9888"
         width="58"
         height="34"
         x="310.73788"
         y="573.99847"
         rx="17" />
      <g
         fill="#2e3436"
         id="g9896"
         transform="translate(331.73788,582.99066)"
         style="display:inline">
        <path
           d="m 2,6.007812 c 1.105469,0 2,0.894532 2,2 0,1.101563 -0.894531,2 -2,2 -1.105469,0 -2,-0.898437 -2,-2 0,-1.105468 0.894531,-2 2,-2 z m 0,0"
           id="path9890" />
        <path
           d="m 8,6.007812 c 1.105469,0 2,0.894532 2,2 0,1.101563 -0.894531,2 -2,2 -1.105469,0 -2,-0.898437 -2,-2 0,-1.105468 0.894531,-2 2,-2 z m 0,0"
           id="path9892" />
        <path
           d="m 14,6.007812 c 1.105469,0 2,0.894532 2,2 0,1.101563 -0.894531,2 -2,2 -1.105469,0 -2,-0.898437 -2,-2 0,-1.105468 0.894531,-2 2,-2 z m 0,0"
           id="path9894" />
      </g>
    </g>
    <g
       id="g12920"
       transform="translate(-92.01912,-359.27641)"
       style="display:inline">
      <rect
         style="display:inline;fill:#e6e6e6;fill-opacity:1;stroke:none;stroke-width:75.5906;paint-order:stroke fill markers"
         id="rect12910"
         width="58"
         height="34"
         x="310.73788"
         y="573.99847"
         rx="17" />
      <g
         fill="#2e3436"
         id="g12918"
         transform="translate(331.73788,582.99066)"
         style="display:inline">
        <path
           d="m 2,6.007812 c 1.105469,0 2,0.894532 2,2 0,1.101563 -0.894531,2 -2,2 -1.105469,0 -2,-0.898437 -2,-2 0,-1.105468 0.894531,-2 2,-2 z m 0,0"
           id="path12912" />
        <path
           d="m 8,6.007812 c 1.105469,0 2,0.894532 2,2 0,1.101563 -0.894531,2 -2,2 -1.105469,0 -2,-0.898437 -2,-2 0,-1.105468 0.894531,-2 2,-2 z m 0,0"
           id="path12914" />
        <path
           d="m 14,6.007812 c 1.105469,0 2,0.894532 2,2 0,1.101563 -0.894531,2 -2,2 -1.105469,0 -2,-0.898437 -2,-2 0,-1.105468 0.894531,-2 2,-2 z m 0,0"
           id="path12916" />
      </g>
    </g>
    <g
       id="g16807"
       transform="translate(-92.01912,-359.27641)"
       style="display:inline">
      <rect
         style="display:inline;fill:#e6e6e6;fill-opacity:1;stroke:none;stroke-width:75.5906;paint-order:stroke fill markers"
         id="rect16797"
         width="58"
         height="34"
         x="310.73788"
         y="573.99847"
         rx="17" />
      <g
         fill="#2e3436"
         id="g16805"
         transform="translate(331.73788,582.99066)"
         style="display:inline">
        <path
           d="m 2,6.007812 c 1.105469,0 2,0.894532 2,2 0,1.101563 -0.894531,2 -2,2 -1.105469,0 -2,-0.898437 -2,-2 0,-1.105468 0.894531,-2 2,-2 z m 0,0"
           id="path16799" />
        <path
           d="m 8,6.007812 c 1.105469,0 2,0.894532 2,2 0,1.101563 -0.894531,2 -2,2 -1.105469,0 -2,-0.898437 -2,-2 0,-1.105468 0.894531,-2 2,-2 z m 0,0"
           id="path16801" />
        <path
           d="m 14,6.007812 c 1.105469,0 2,0.894532 2,2 0,1.101563 -0.894531,2 -2,2 -1.105469,0 -2,-0.898437 -2,-2 0,-1.105468 0.894531,-2 2,-2 z m 0,0"
           id="path16803" />
      </g>
    </g>
    <g
       id="g16825"
       transform="translate(-92.01912,-312.27641)"
       style="display:inline">
      <rect
         style="display:inline;fill:#e6e6e6;fill-opacity:1;stroke:none;stroke-width:75.5906;paint-order:stroke fill markers"
         id="rect16815"
         width="58"
         height="34"
         x="310.73788"
         y="573.99847"
         rx="17" />
      <g
         fill="#2e3436"
         id="g16823"
         transform="translate(331.73788,582.99066)"
         style="display:inline">
        <path
           d="m 2,6.007812 c 1.105469,0 2,0.894532 2,2 0,1.101563 -0.894531,2 -2,2 -1.105469,0 -2,-0.898437 -2,-2 0,-1.105468 0.894531,-2 2,-2 z m 0,0"
           id="path16817" />
        <path
           d="m 8,6.007812 c 1.105469,0 2,0.894532 2,2 0,1.101563 -0.894531,2 -2,2 -1.105469,0 -2,-0.898437 -2,-2 0,-1.105468 0.894531,-2 2,-2 z m 0,0"
           id="path16819" />
        <path
           d="m 14,6.007812 c 1.105469,0 2,0.894532 2,2 0,1.101563 -0.894531,2 -2,2 -1.105469,0 -2,-0.898437 -2,-2 0,-1.105468 0.894531,-2 2,-2 z m 0,0"
           id="path16821" />
      </g>
    </g>
    <g
       id="g19659"
       transform="translate(-92.01912,-278.27641)"
       style="display:inline">
      <rect
         style="display:inline;fill:#e6e6e6;fill-opacity:1;stroke:none;stroke-width:75.5906;paint-order:stroke fill markers"
         id="rect19649"
         width="58"
         height="34"
         x="310.73788"
         y="573.99847"
         rx="17" />
      <g
         fill="#2e3436"
         id="g19657"
         transform="translate(331.73788,582.99066)"
         style="display:inline">
        <path
           d="m 2,6.007812 c 1.105469,0 2,0.894532 2,2 0,1.101563 -0.894531,2 -2,2 -1.105469,0 -2,-0.898437 -2,-2 0,-1.105468 0.894531,-2 2,-2 z m 0,0"
           id="path19651" />
        <path
           d="m 8,6.007812 c 1.105469,0 2,0.894532 2,2 0,1.101563 -0.894531,2 -2,2 -1.105469,0 -2,-0.898437 -2,-2 0,-1.105468 0.894531,-2 2,-2 z m 0,0"
           id="path19653" />
        <path
           d="m 14,6.007812 c 1.105469,0 2,0.894532 2,2 0,1.101563 -0.894531,2 -2,2 -1.105469,0 -2,-0.898437 -2,-2 0,-1.105468 0.894531,-2 2,-2 z m 0,0"
           id="path19655" />
      </g>
    </g>
    <g
       id="g19675"
       transform="translate(-92.01912,-244.27641)"
       style="display:inline">
      <rect
         style="display:inline;fill:#e6e6e6;fill-opacity:1;stroke:none;stroke-width:75.5906;paint-order:stroke fill markers"
         id="rect19665"
         width="58"
         height="34"
         x="310.73788"
         y="573.99847"
         rx="17" />
      <g
         fill="#2e3436"
         id="g19673"
         transform="translate(331.73788,582.99066)"
         style="display:inline">
        <path
           d="m 2,6.007812 c 1.105469,0 2,0.894532 2,2 0,1.101563 -0.894531,2 -2,2 -1.105469,0 -2,-0.898437 -2,-2 0,-1.105468 0.894531,-2 2,-2 z m 0,0"
           id="path19667" />
        <path
           d="m 8,6.007812 c 1.105469,0 2,0.894532 2,2 0,1.101563 -0.894531,2 -2,2 -1.105469,0 -2,-0.898437 -2,-2 0,-1.105468 0.894531,-2 2,-2 z m 0,0"
           id="path19669" />
        <path
           d="m 14,6.007812 c 1.105469,0 2,0.894532 2,2 0,1.101563 -0.894531,2 -2,2 -1.105469,0 -2,-0.898437 -2,-2 0,-1.105468 0.894531,-2 2,-2 z m 0,0"
           id="path19671" />
      </g>
    </g>
    <g
       id="g20533"
       transform="translate(195.98088,-440.27641)"
       style="display:inline">
      <rect
         style="display:inline;fill:#e6e6e6;fill-opacity:1;stroke:none;stroke-width:75.5906;paint-order:stroke fill markers"
         id="rect20523"
         width="58"
         height="34"
         x="310.73788"
         y="573.99847"
         rx="17" />
      <g
         fill="#2e3436"
         id="g20531"
         transform="translate(331.73788,582.99066)"
         style="display:inline">
        <path
           d="m 2,6.007812 c 1.105469,0 2,0.894532 2,2 0,1.101563 -0.894531,2 -2,2 -1.105469,0 -2,-0.898437 -2,-2 0,-1.105468 0.894531,-2 2,-2 z m 0,0"
           id="path20525" />
        <path
           d="m 8,6.007812 c 1.105469,0 2,0.894532 2,2 0,1.101563 -0.894531,2 -2,2 -1.105469,0 -2,-0.898437 -2,-2 0,-1.105468 0.894531,-2 2,-2 z m 0,0"
           id="path20527" />
        <path
           d="m 14,6.007812 c 1.105469,0 2,0.894532 2,2 0,1.101563 -0.894531,2 -2,2 -1.105469,0 -2,-0.898437 -2,-2 0,-1.105468 0.894531,-2 2,-2 z m 0,0"
           id="path20529" />
      </g>
    </g>
    <g
       id="g20549"
       transform="translate(195.98088,-406.27641)"
       style="display:inline">
      <rect
         style="display:inline;fill:#e6e6e6;fill-opacity:1;stroke:none;stroke-width:75.5906;paint-order:stroke fill markers"
         id="rect20539"
         width="58"
         height="34"
         x="310.73788"
         y="573.99847"
         rx="17" />
      <g
         fill="#2e3436"
         id="g20547"
         transform="translate(331.73788,582.99066)"
         style="display:inline">
        <path
           d="m 2,6.007812 c 1.105469,0 2,0.894532 2,2 0,1.101563 -0.894531,2 -2,2 -1.105469,0 -2,-0.898437 -2,-2 0,-1.105468 0.894531,-2 2,-2 z m 0,0"
           id="path20541" />
        <path
           d="m 8,6.007812 c 1.105469,0 2,0.894532 2,2 0,1.101563 -0.894531,2 -2,2 -1.105469,0 -2,-0.898437 -2,-2 0,-1.105468 0.894531,-2 2,-2 z m 0,0"
           id="path20543" />
        <path
           d="m 14,6.007812 c 1.105469,0 2,0.894532 2,2 0,1.101563 -0.894531,2 -2,2 -1.105469,0 -2,-0.898437 -2,-2 0,-1.105468 0.894531,-2 2,-2 z m 0,0"
           id="path20545" />
      </g>
    </g>
    <g
       id="g20567"
       transform="translate(195.98088,-359.27641)"
       style="display:inline">
      <rect
         style="display:inline;fill:#e6e6e6;fill-opacity:1;stroke:none;stroke-width:75.5906;paint-order:stroke fill markers"
         id="rect20557"
         width="58"
         height="34"
         x="310.73788"
         y="573.99847"
         rx="17" />
      <g
         fill="#2e3436"
         id="g20565"
         transform="translate(331.73788,582.99066)"
         style="display:inline">
        <path
           d="m 2,6.007812 c 1.105469,0 2,0.894532 2,2 0,1.101563 -0.894531,2 -2,2 -1.105469,0 -2,-0.898437 -2,-2 0,-1.105468 0.894531,-2 2,-2 z m 0,0"
           id="path20559" />
        <path
           d="m 8,6.007812 c 1.105469,0 2,0.894532 2,2 0,1.101563 -0.894531,2 -2,2 -1.105469,0 -2,-0.898437 -2,-2 0,-1.105468 0.894531,-2 2,-2 z m 0,0"
           id="path20561" />
        <path
           d="m 14,6.007812 c 1.105469,0 2,0.894532 2,2 0,1.101563 -0.894531,2 -2,2 -1.105469,0 -2,-0.898437 -2,-2 0,-1.105468 0.894531,-2 2,-2 z m 0,0"
           id="path20563" />
      </g>
    </g>
    <g
       id="g20579"
       transform="translate(195.98088,-359.27641)"
       style="display:inline">
      <rect
         style="display:inline;fill:#e6e6e6;fill-opacity:1;stroke:none;stroke-width:75.5906;paint-order:stroke fill markers"
         id="rect20569"
         width="58"
         height="34"
         x="310.73788"
         y="573.99847"
         rx="17" />
      <g
         fill="#2e3436"
         id="g20577"
         transform="translate(331.73788,582.99066)"
         style="display:inline">
        <path
           d="m 2,6.007812 c 1.105469,0 2,0.894532 2,2 0,1.101563 -0.894531,2 -2,2 -1.105469,0 -2,-0.898437 -2,-2 0,-1.105468 0.894531,-2 2,-2 z m 0,0"
           id="path20571" />
        <path
           d="m 8,6.007812 c 1.105469,0 2,0.894532 2,2 0,1.101563 -0.894531,2 -2,2 -1.105469,0 -2,-0.898437 -2,-2 0,-1.105468 0.894531,-2 2,-2 z m 0,0"
           id="path20573" />
        <path
           d="m 14,6.007812 c 1.105469,0 2,0.894532 2,2 0,1.101563 -0.894531,2 -2,2 -1.105469,0 -2,-0.898437 -2,-2 0,-1.105468 0.894531,-2 2,-2 z m 0,0"
           id="path20575" />
      </g>
    </g>
    <g
       id="g21677"
       transform="translate(195.98088,-312.27641)"
       style="display:inline">
      <rect
         style="display:inline;fill:#e6e6e6;fill-opacity:1;stroke:none;stroke-width:75.5906;paint-order:stroke fill markers"
         id="rect21667"
         width="58"
         height="34"
         x="310.73788"
         y="573.99847"
         rx="17" />
      <g
         fill="#2e3436"
         id="g21675"
         transform="translate(331.73788,582.99066)"
         style="display:inline">
        <path
           d="m 2,6.007812 c 1.105469,0 2,0.894532 2,2 0,1.101563 -0.894531,2 -2,2 -1.105469,0 -2,-0.898437 -2,-2 0,-1.105468 0.894531,-2 2,-2 z m 0,0"
           id="path21669" />
        <path
           d="m 8,6.007812 c 1.105469,0 2,0.894532 2,2 0,1.101563 -0.894531,2 -2,2 -1.105469,0 -2,-0.898437 -2,-2 0,-1.105468 0.894531,-2 2,-2 z m 0,0"
           id="path21671" />
        <path
           d="m 14,6.007812 c 1.105469,0 2,0.894532 2,2 0,1.101563 -0.894531,2 -2,2 -1.105469,0 -2,-0.898437 -2,-2 0,-1.105468 0.894531,-2 2,-2 z m 0,0"
           id="path21673" />
      </g>
    </g>
    <g
       id="g21689"
       transform="translate(195.98088,-312.27641)"
       style="display:inline">
      <rect
         style="display:inline;fill:#e6e6e6;fill-opacity:1;stroke:none;stroke-width:75.5906;paint-order:stroke fill markers"
         id="rect21679"
         width="58"
         height="34"
         x="310.73788"
         y="573.99847"
         rx="17" />
      <g
         fill="#2e3436"
         id="g21687"
         transform="translate(331.73788,582.99066)"
         style="display:inline">
        <path
           d="m 2,6.007812 c 1.105469,0 2,0.894532 2,2 0,1.101563 -0.894531,2 -2,2 -1.105469,0 -2,-0.898437 -2,-2 0,-1.105468 0.894531,-2 2,-2 z m 0,0"
           id="path21681" />
        <path
           d="m 8,6.007812 c 1.105469,0 2,0.894532 2,2 0,1.101563 -0.894531,2 -2,2 -1.105469,0 -2,-0.898437 -2,-2 0,-1.105468 0.894531,-2 2,-2 z m 0,0"
           id="path21683" />
        <path
           d="m 14,6.007812 c 1.105469,0 2,0.894532 2,2 0,1.101563 -0.894531,2 -2,2 -1.105469,0 -2,-0.898437 -2,-2 0,-1.105468 0.894531,-2 2,-2 z m 0,0"
           id="path21685" />
      </g>
    </g>
    <g
       id="g21703"
       transform="translate(195.98088,-265.27641)"
       style="display:inline">
      <rect
         style="display:inline;fill:#e6e6e6;fill-opacity:1;stroke:none;stroke-width:75.5906;paint-order:stroke fill markers"
         id="rect21693"
         width="58"
         height="34"
         x="310.73788"
         y="573.99847"
         rx="17" />
      <g
         fill="#2e3436"
         id="g21701"
         transform="translate(331.73788,582.99066)"
         style="display:inline">
        <path
           d="m 2,6.007812 c 1.105469,0 2,0.894532 2,2 0,1.101563 -0.894531,2 -2,2 -1.105469,0 -2,-0.898437 -2,-2 0,-1.105468 0.894531,-2 2,-2 z m 0,0"
           id="path21695" />
        <path
           d="m 8,6.007812 c 1.105469,0 2,0.894532 2,2 0,1.101563 -0.894531,2 -2,2 -1.105469,0 -2,-0.898437 -2,-2 0,-1.105468 0.894531,-2 2,-2 z m 0,0"
           id="path21697" />
        <path
           d="m 14,6.007812 c 1.105469,0 2,0.894532 2,2 0,1.101563 -0.894531,2 -2,2 -1.105469,0 -2,-0.898437 -2,-2 0,-1.105468 0.894531,-2 2,-2 z m 0,0"
           id="path21699" />
      </g>
    </g>
    <g
       id="g21723"
       transform="translate(195.98088,-231.27641)"
       style="display:inline">
      <rect
         style="display:inline;fill:#e6e6e6;fill-opacity:1;stroke:none;stroke-width:75.5906;paint-order:stroke fill markers"
         id="rect21713"
         width="58"
         height="34"
         x="310.73788"
         y="573.99847"
         rx="17" />
      <g
         fill="#2e3436"
         id="g21721"
         transform="translate(331.73788,582.99066)"
         style="display:inline">
        <path
           d="m 2,6.007812 c 1.105469,0 2,0.894532 2,2 0,1.101563 -0.894531,2 -2,2 -1.105469,0 -2,-0.898437 -2,-2 0,-1.105468 0.894531,-2 2,-2 z m 0,0"
           id="path21715" />
        <path
           d="m 8,6.007812 c 1.105469,0 2,0.894532 2,2 0,1.101563 -0.894531,2 -2,2 -1.105469,0 -2,-0.898437 -2,-2 0,-1.105468 0.894531,-2 2,-2 z m 0,0"
           id="path21717" />
        <path
           d="m 14,6.007812 c 1.105469,0 2,0.894532 2,2 0,1.101563 -0.894531,2 -2,2 -1.105469,0 -2,-0.898437 -2,-2 0,-1.105468 0.894531,-2 2,-2 z m 0,0"
           id="path21719" />
      </g>
    </g>
    <g
       id="g21739"
       transform="translate(195.98088,-197.27642)"
       style="display:inline">
      <rect
         style="display:inline;fill:#e6e6e6;fill-opacity:1;stroke:none;stroke-width:75.5906;paint-order:stroke fill markers"
         id="rect21729"
         width="58"
         height="34"
         x="310.73788"
         y="573.99847"
         rx="17" />
      <g
         fill="#2e3436"
         id="g21737"
         transform="translate(331.73788,582.99066)"
         style="display:inline">
        <path
           d="m 2,6.007812 c 1.105469,0 2,0.894532 2,2 0,1.101563 -0.894531,2 -2,2 -1.105469,0 -2,-0.898437 -2,-2 0,-1.105468 0.894531,-2 2,-2 z m 0,0"
           id="path21731" />
        <path
           d="m 8,6.007812 c 1.105469,0 2,0.894532 2,2 0,1.101563 -0.894531,2 -2,2 -1.105469,0 -2,-0.898437 -2,-2 0,-1.105468 0.894531,-2 2,-2 z m 0,0"
           id="path21733" />
        <path
           d="m 14,6.007812 c 1.105469,0 2,0.894532 2,2 0,1.101563 -0.894531,2 -2,2 -1.105469,0 -2,-0.898437 -2,-2 0,-1.105468 0.894531,-2 2,-2 z m 0,0"
           id="path21735" />
      </g>
    </g>
  </g>
</svg>
